<?xml version="1.0" encoding="iso-8859-1"?>
<!-- Generator: Adobe Illustrator 16.0.0, SVG Export Plug-In . SVG Version: 6.00 Build 0)  -->
<!DOCTYPE svg PUBLIC "-//W3C//DTD SVG 1.1//EN" "http://www.w3.org/Graphics/SVG/1.1/DTD/svg11.dtd">
<svg version="1.1" id="Capa_1" xmlns="http://www.w3.org/2000/svg" xmlns:xlink="http://www.w3.org/1999/xlink" x="0px" y="0px"
	 width="489.488px" height="489.488px" viewBox="0 0 489.488 489.488" style="enable-background:new 0 0 489.488 489.488;"
	 xml:space="preserve">
<g>
	<path d="M446.621,89.841L353.473,3.067C351.356,1.091,348.561,0,345.688,0H98.296C91.983,0,86.85,5.128,86.85,11.44v316.347
		l18.551-18.548l0,0l4.321-4.327V22.878h213.477v85.845c0,6.312,5.124,11.44,11.437,11.44h92.764v316.95H210.485l-22.872,22.862
		H438.83c6.324,0,11.443-5.118,11.443-11.443V98.21C450.268,95.039,448.938,92.001,446.621,89.841z M346.072,97.285V27.438
		l74.984,69.848H346.072z M206.165,413.334l-76.154,76.154l-13.042-13.045c-17.567,6.088-37.829,2.175-51.861-11.857
		c-14.029-14.021-17.945-34.294-11.842-51.861l-14.05-14.037l76.16-76.154l3.552,3.552c4.342,4.339,11.373,4.339,15.72,0
		c4.338-4.345,4.338-11.378,0-15.723l-3.558-3.546l70.772-70.77l11.943,11.946c19.003-10.347,43.27-7.516,59.347,8.559
		c16.089,16.077,18.915,40.347,8.571,59.355l10.94,10.941l-70.778,70.77l-3.553-3.559c-4.341-4.338-11.375-4.338-15.72,0
		c-4.338,4.345-4.338,11.373,0,15.717L206.165,413.334z"/>
</g>
<g>
</g>
<g>
</g>
<g>
</g>
<g>
</g>
<g>
</g>
<g>
</g>
<g>
</g>
<g>
</g>
<g>
</g>
<g>
</g>
<g>
</g>
<g>
</g>
<g>
</g>
<g>
</g>
<g>
</g>
</svg>
